module github.com/quasilyte/roboden-game

go 1.19

replace github.com/ebitenui/ebitenui => github.com/quasilyte/ebitenui v0.0.0-20230726093423-e2a7a066d711

require (
	github.com/ebitenui/ebitenui v0.5.5-0.20230624233435-1e70bd0b3fb0
	github.com/hajimehoshi/bitmapfont/v3 v3.0.0-alpha
	github.com/hajimehoshi/ebiten/v2 v2.5.0-alpha.12.0.20230228174701-7c0fbce0cfd8
	github.com/hajimehoshi/go-steamworks v0.0.0-20230809071343-ee1a81910acc
	github.com/mattn/go-sqlite3 v1.14.16
	github.com/quasilyte/ebitengine-resource v0.5.1-0.20230412072401-66c02806357e
	github.com/quasilyte/ge v0.0.0-20230720204729-09c6db995adc
	github.com/quasilyte/gmath v0.0.0-20230626195558-43d7cdc669ef
	github.com/quasilyte/gsignal v0.0.0-20230130114532-ff67b4bb9e15
	golang.org/x/image v0.8.0
)

require (
	github.com/ebitengine/purego v0.3.2 // indirect
	github.com/go-gl/glfw/v3.3/glfw v0.0.0-20221017161538-93cebf72946b // indirect
	github.com/hajimehoshi/oto/v2 v2.4.0 // indirect
	github.com/jezek/xgb v1.1.0 // indirect
	github.com/jfreymuth/oggvorbis v1.0.5 // indirect
	github.com/jfreymuth/vorbis v1.0.2 // indirect
	golang.org/x/exp v0.0.0-20221023144134-a1e5550cf13e // indirect
	golang.org/x/exp/shiny v0.0.0-20230522175609-2e198f4a06a1 // indirect
	golang.org/x/mobile v0.0.0-20230531173138-3c911d8e3eda // indirect
	golang.org/x/sync v0.3.0 // indirect
	golang.org/x/sys v0.9.0 // indirect
	golang.org/x/text v0.10.0 // indirect
)
